%YAML 1.1
%TAG !u! tag:unity3d.com,2011:
--- !u!114 &11400000
MonoBehaviour:
  m_ObjectHideFlags: 0
  m_CorrespondingSourceObject: {fileID: 0}
  m_PrefabInstance: {fileID: 0}
  m_PrefabAsset: {fileID: 0}
  m_GameObject: {fileID: 0}
  m_Enabled: 1
  m_EditorHideFlags: 0
  m_Script: {fileID: 11500000, guid: 75cf9c1d3011cfb40989568e42a2a9d1, type: 3}
  m_Name: WeaponsInventory
  m_EditorClassIdentifier: 
  AvariableWeapons:
  - {fileID: 11400000, guid: 7be46de445296d84690ac758f1222e80, type: 2}
  - {fileID: 11400000, guid: 7078fec49813b484a9945914df2bc483, type: 2}
  - {fileID: 11400000, guid: 26e9f23a406c83247be91782e357299a, type: 2}
  InitialWeapons:
  - {fileID: 11400000, guid: d244eaab5c36c604da9cb9d1201c6169, type: 2}
  - {fileID: 11400000, guid: c5fad42577f8e814eb5c6be5c29f0a5c, type: 2}
