%YAML 1.1
%TAG !u! tag:unity3d.com,2011:
--- !u!1001 &8471208471521099068
PrefabInstance:
  m_ObjectHideFlags: 0
  serializedVersion: 2
  m_Modification:
    m_TransformParent: {fileID: 0}
    m_Modifications:
    - target: {fileID: 1503052055574750289, guid: 107f20469218ebd4688352fbc2880589,
        type: 3}
      propertyPath: m_Size.x
      value: 1.1895368
      objectReference: {fileID: 0}
    - target: {fileID: 1503052055574750289, guid: 107f20469218ebd4688352fbc2880589,
        type: 3}
      propertyPath: m_Size.y
      value: 0.1967592
      objectReference: {fileID: 0}
    - target: {fileID: 1503052055574750289, guid: 107f20469218ebd4688352fbc2880589,
        type: 3}
      propertyPath: m_Offset.x
      value: -0.00033914967
      objectReference: {fileID: 0}
    - target: {fileID: 1503052055574750289, guid: 107f20469218ebd4688352fbc2880589,
        type: 3}
      propertyPath: m_Offset.y
      value: 0.0066837207
      objectReference: {fileID: 0}
    - target: {fileID: 6388850362195872242, guid: 107f20469218ebd4688352fbc2880589,
        type: 3}
      propertyPath: m_RootOrder
      value: 0
      objectReference: {fileID: 0}
    - target: {fileID: 6388850362195872242, guid: 107f20469218ebd4688352fbc2880589,
        type: 3}
      propertyPath: m_LocalPosition.x
      value: 0
      objectReference: {fileID: 0}
    - target: {fileID: 6388850362195872242, guid: 107f20469218ebd4688352fbc2880589,
        type: 3}
      propertyPath: m_LocalPosition.y
      value: 0
      objectReference: {fileID: 0}
    - target: {fileID: 6388850362195872242, guid: 107f20469218ebd4688352fbc2880589,
        type: 3}
      propertyPath: m_LocalPosition.z
      value: 0
      objectReference: {fileID: 0}
    - target: {fileID: 6388850362195872242, guid: 107f20469218ebd4688352fbc2880589,
        type: 3}
      propertyPath: m_LocalRotation.w
      value: 1
      objectReference: {fileID: 0}
    - target: {fileID: 6388850362195872242, guid: 107f20469218ebd4688352fbc2880589,
        type: 3}
      propertyPath: m_LocalRotation.x
      value: 0
      objectReference: {fileID: 0}
    - target: {fileID: 6388850362195872242, guid: 107f20469218ebd4688352fbc2880589,
        type: 3}
      propertyPath: m_LocalRotation.y
      value: 0
      objectReference: {fileID: 0}
    - target: {fileID: 6388850362195872242, guid: 107f20469218ebd4688352fbc2880589,
        type: 3}
      propertyPath: m_LocalRotation.z
      value: 0
      objectReference: {fileID: 0}
    - target: {fileID: 6388850362195872242, guid: 107f20469218ebd4688352fbc2880589,
        type: 3}
      propertyPath: m_LocalEulerAnglesHint.x
      value: 0
      objectReference: {fileID: 0}
    - target: {fileID: 6388850362195872242, guid: 107f20469218ebd4688352fbc2880589,
        type: 3}
      propertyPath: m_LocalEulerAnglesHint.y
      value: 0
      objectReference: {fileID: 0}
    - target: {fileID: 6388850362195872242, guid: 107f20469218ebd4688352fbc2880589,
        type: 3}
      propertyPath: m_LocalEulerAnglesHint.z
      value: 0
      objectReference: {fileID: 0}
    - target: {fileID: 6388850362195872243, guid: 107f20469218ebd4688352fbc2880589,
        type: 3}
      propertyPath: m_Size.x
      value: 1.5
      objectReference: {fileID: 0}
    - target: {fileID: 6388850362195872243, guid: 107f20469218ebd4688352fbc2880589,
        type: 3}
      propertyPath: m_Size.y
      value: 0.54
      objectReference: {fileID: 0}
    - target: {fileID: 6388850362195872243, guid: 107f20469218ebd4688352fbc2880589,
        type: 3}
      propertyPath: m_Sprite
      value: 
      objectReference: {fileID: 21300000, guid: 27056f31ea1383146873738b924effbf,
        type: 3}
    - target: {fileID: 6388850362195872252, guid: 107f20469218ebd4688352fbc2880589,
        type: 3}
      propertyPath: m_Name
      value: BulletLaser
      objectReference: {fileID: 0}
    m_RemovedComponents: []
  m_SourcePrefab: {fileID: 100100000, guid: 107f20469218ebd4688352fbc2880589, type: 3}
