%YAML 1.1
%TAG !u! tag:unity3d.com,2011:
--- !u!114 &6212840971394469469
MonoBehaviour:
  m_ObjectHideFlags: 0
  m_CorrespondingSourceObject: {fileID: 0}
  m_PrefabInstance: {fileID: 0}
  m_PrefabAsset: {fileID: 0}
  m_GameObject: {fileID: 3263843165859827880}
  m_Enabled: 1
  m_EditorHideFlags: 0
  m_Script: {fileID: 11500000, guid: e64db7ccd6ac8734ba66690ad478d7ce, type: 3}
  m_Name: 
  m_EditorClassIdentifier: 
  ItemData: {fileID: 11400000, guid: d244eaab5c36c604da9cb9d1201c6169, type: 2}
  PointsForEchItemCatch: 0
--- !u!1001 &7539913943299406626
PrefabInstance:
  m_ObjectHideFlags: 0
  serializedVersion: 2
  m_Modification:
    m_TransformParent: {fileID: 0}
    m_Modifications:
    - target: {fileID: 2475879465050209924, guid: 0c44dbfe084a7424283c289efeb08463,
        type: 3}
      propertyPath: ItemData
      value: 
      objectReference: {fileID: 11400000, guid: d244eaab5c36c604da9cb9d1201c6169,
        type: 2}
    - target: {fileID: 3158908074123011370, guid: 0c44dbfe084a7424283c289efeb08463,
        type: 3}
      propertyPath: m_SpriteTilingProperty.pivot.x
      value: 0.5
      objectReference: {fileID: 0}
    - target: {fileID: 3158908074123011370, guid: 0c44dbfe084a7424283c289efeb08463,
        type: 3}
      propertyPath: m_SpriteTilingProperty.pivot.y
      value: 0.5
      objectReference: {fileID: 0}
    - target: {fileID: 3158908074123011370, guid: 0c44dbfe084a7424283c289efeb08463,
        type: 3}
      propertyPath: m_SpriteTilingProperty.newSize.x
      value: 4.7
      objectReference: {fileID: 0}
    - target: {fileID: 3158908074123011370, guid: 0c44dbfe084a7424283c289efeb08463,
        type: 3}
      propertyPath: m_SpriteTilingProperty.newSize.y
      value: 3.11
      objectReference: {fileID: 0}
    - target: {fileID: 3158908074123011370, guid: 0c44dbfe084a7424283c289efeb08463,
        type: 3}
      propertyPath: m_SpriteTilingProperty.oldSize.x
      value: 4.7
      objectReference: {fileID: 0}
    - target: {fileID: 3158908074123011370, guid: 0c44dbfe084a7424283c289efeb08463,
        type: 3}
      propertyPath: m_SpriteTilingProperty.oldSize.y
      value: 3.11
      objectReference: {fileID: 0}
    - target: {fileID: 3158908074123011370, guid: 0c44dbfe084a7424283c289efeb08463,
        type: 3}
      propertyPath: m_SpriteTilingProperty.adaptiveTilingThreshold
      value: 0.5
      objectReference: {fileID: 0}
    - target: {fileID: 5037460736159869834, guid: 0c44dbfe084a7424283c289efeb08463,
        type: 3}
      propertyPath: m_Name
      value: ItemShop
      objectReference: {fileID: 0}
    - target: {fileID: 8074734519410646020, guid: 0c44dbfe084a7424283c289efeb08463,
        type: 3}
      propertyPath: m_RootOrder
      value: 0
      objectReference: {fileID: 0}
    - target: {fileID: 8074734519410646020, guid: 0c44dbfe084a7424283c289efeb08463,
        type: 3}
      propertyPath: m_LocalScale.x
      value: 0.8
      objectReference: {fileID: 0}
    - target: {fileID: 8074734519410646020, guid: 0c44dbfe084a7424283c289efeb08463,
        type: 3}
      propertyPath: m_LocalScale.y
      value: 0.8
      objectReference: {fileID: 0}
    - target: {fileID: 8074734519410646020, guid: 0c44dbfe084a7424283c289efeb08463,
        type: 3}
      propertyPath: m_LocalPosition.x
      value: 0
      objectReference: {fileID: 0}
    - target: {fileID: 8074734519410646020, guid: 0c44dbfe084a7424283c289efeb08463,
        type: 3}
      propertyPath: m_LocalPosition.y
      value: 0
      objectReference: {fileID: 0}
    - target: {fileID: 8074734519410646020, guid: 0c44dbfe084a7424283c289efeb08463,
        type: 3}
      propertyPath: m_LocalPosition.z
      value: 0
      objectReference: {fileID: 0}
    - target: {fileID: 8074734519410646020, guid: 0c44dbfe084a7424283c289efeb08463,
        type: 3}
      propertyPath: m_LocalRotation.w
      value: 1
      objectReference: {fileID: 0}
    - target: {fileID: 8074734519410646020, guid: 0c44dbfe084a7424283c289efeb08463,
        type: 3}
      propertyPath: m_LocalRotation.x
      value: 0
      objectReference: {fileID: 0}
    - target: {fileID: 8074734519410646020, guid: 0c44dbfe084a7424283c289efeb08463,
        type: 3}
      propertyPath: m_LocalRotation.y
      value: 0
      objectReference: {fileID: 0}
    - target: {fileID: 8074734519410646020, guid: 0c44dbfe084a7424283c289efeb08463,
        type: 3}
      propertyPath: m_LocalRotation.z
      value: 0
      objectReference: {fileID: 0}
    - target: {fileID: 8074734519410646020, guid: 0c44dbfe084a7424283c289efeb08463,
        type: 3}
      propertyPath: m_LocalEulerAnglesHint.x
      value: 0
      objectReference: {fileID: 0}
    - target: {fileID: 8074734519410646020, guid: 0c44dbfe084a7424283c289efeb08463,
        type: 3}
      propertyPath: m_LocalEulerAnglesHint.y
      value: 0
      objectReference: {fileID: 0}
    - target: {fileID: 8074734519410646020, guid: 0c44dbfe084a7424283c289efeb08463,
        type: 3}
      propertyPath: m_LocalEulerAnglesHint.z
      value: 0
      objectReference: {fileID: 0}
    m_RemovedComponents:
    - {fileID: 2475879465050209924, guid: 0c44dbfe084a7424283c289efeb08463, type: 3}
  m_SourcePrefab: {fileID: 100100000, guid: 0c44dbfe084a7424283c289efeb08463, type: 3}
--- !u!1 &3263843165859827880 stripped
GameObject:
  m_CorrespondingSourceObject: {fileID: 5037460736159869834, guid: 0c44dbfe084a7424283c289efeb08463,
    type: 3}
  m_PrefabInstance: {fileID: 7539913943299406626}
  m_PrefabAsset: {fileID: 0}
